{
  "type": "service_account",
  "project_id": "todos-532d0",
  "private_key_id": "a1923738a6b1bff4fc8ad237d50adeb0a81ec8c9",
  "private_key": "-----BEGIN PRIVATE KEY-----\nMIIEvAIBADANBgkqhkiG9w0BAQEFAASCBKYwggSiAgEAAoIBAQCRggw/30GS6l5o\nKXjBKsa3z49TfI2AR2IesfbNgH1HASUc0mlqAORl0lGStUGqorUewwEljRYA1LTV\nrG9RJ4QpW/4wB1Zft3HbnIuRGqY3SSQFYjwe6rEHpIgzLSMcwmNu8LzHAq1YVLu9\n+IZ6k5p5JI8W1S7jy2MVnPQRuoyhUURY9bLTmMB4TTG9JW42ZDE0oZDihb+cB8Pu\nvYjKT6+Jxh8eiI87jR8J8uguCFQPQx87EmJhbZftW8+9a9Dp9HnDx4D9uN4a40UC\nSC5eSYK6Lm9sRZzK7KlQ8Dak6OCIopfyr6RYRwLDIYLTdSbH8dQTAumZoKt8ShVS\nTrRPbVSNAgMBAAECggEADaCiOLnWNdtjrm9dOFYjGKREoPCJfhScELzhHPD7iqgF\noPPnMdQrOoqz32trXtRF5eokftmo+w3wxmbpDAQz6/20yixoafwlGojIR3WOpfSL\nKO1A190UvwmpRIW7Lp6EBSgLE2Zhnrlc1ey4h4gFunJylj8EA7XmLeguXESzlrNW\nGM4jt10bLglWhbR3F3i2ok9L/GQsRQNVjX0lKD1raNVe/NhvdHfjHmydTIicywBm\nVcG2i20GFqUoz02qLFvCtx4iM1Yhzglin39oTN45kX1HINqM3h49DQ/C2spNbbNz\nZres/EdDdfzZjRcQGtC4Oa2d5DJt4PJZ3WOBRVzAHwKBgQDCVpWnxs+nuy9tMb7a\naPepWvhoH26vxHNOxW8dedt+f3BiS3JGu7r0ZvcoJSEMofUmjGXPFX+jmSVdpi6q\nmL9JBwVRvwsPYsoY8M7tWJyGKA4AocqV02Qlsj//DrZYZH3LZ/2Ib5so6IaGIft8\nHYZTJ7GdTZlg5CPbOzeOU2sogwKBgQC/rSef4TboC4cO+LuxLMHFg+zBpM9de1LB\nzRu69F19KzJMvN3Wyr42W4/MlTbxTRHa+rTurJfW8DE2j3NrnzZiCPIJ7IUmUiQO\n8JJAtjaF7AWdwZbWawpk9yq7g/30vjvmuIQsKcglrvcgZfUL2D58B5h4gkOVuTi3\n9qdQb3FhrwKBgEKXmtaP+K4YJUs8hZKf72WX55D+XFZcccqnOskV7ZGuJ5t3EOSO\nBaUj90NJXcbPZIreBzDrw/4SR0yM2mbYyotCnZ8CYM7X4jqjobSQ7anG5e1vg1TN\nx/5m0ykaKH+nh7eAnc73t2pQK3ChCmTgVRv/eQxW/9zEsEi6RPI/QXPzAoGATeKI\nRVj4PJXijVzYt4eePSn8HDth33RrDkDP0cnV6zSQPcpIwiyj2eaeqdy/9JECfl59\nArazBC2ZcbgciFCrgm5sG0g2WnnqGP/8Dbt8sDJVneK57eqU0K32eTeLC9X49Slo\n26EmqNlNpaaISgXWbgOQGvejisU2nNnm5rJB+hUCgYBNTRgPcvB7RYaBo+DCjMH7\nVnpvBZPya+7Y2y7zcIantcg5Hv1WEmzQYxgEAM09ykODwxSqU+rzl6aVJPtfvih0\n3eaa3LBdE6dbrAb0NOAYN9dVh1xROojSN/Ogv8FNJzlA5ghFWPYoyLegrzy5Y4cC\nZFYwCysAGM01hs69KHnwgQ==\n-----END PRIVATE KEY-----\n",
  "client_email": "firebase-adminsdk-4dasi@todos-532d0.iam.gserviceaccount.com",
  "client_id": "103678882372965431567",
  "auth_uri": "https://accounts.google.com/o/oauth2/auth",
  "token_uri": "https://oauth2.googleapis.com/token",
  "auth_provider_x509_cert_url": "https://www.googleapis.com/oauth2/v1/certs",
  "client_x509_cert_url": "https://www.googleapis.com/robot/v1/metadata/x509/firebase-adminsdk-4dasi%40todos-532d0.iam.gserviceaccount.com",
  "universe_domain": "googleapis.com"
}
